lab02/counter.vcd
$date
     Jan 30, 2016       16:59:47
$end

$version
 SystemC 2.3.1-Accellera --- Jan 20 2016 10:07:01
$end

$timescale
     1 ps
$end

$scope module SystemC $end
$var wire    1  aaaaa  clock       $end
$var wire    1  aaaab  reset       $end
$var wire    1  aaaac  enable       $end
$var wire    4  aaaad  count [3:0]  $end
$upscope $end
$enddefinitions  $end

$comment
All initial values are dumped below at time 1e-09 sec = 1000 timescale units.
$end

$dumpvars
0aaaaa
0aaaab
0aaaac
b0 aaaad
$end

#2000
1aaaaa

#3000
0aaaaa

#4000
1aaaaa

#5000
0aaaaa

#6000
1aaaaa

#7000
0aaaaa

#8000
1aaaaa

#9000
0aaaaa

#10000
1aaaaa

#11000
0aaaaa
1aaaab

#12000
1aaaaa

#13000
0aaaaa

#14000
1aaaaa

#15000
0aaaaa

#16000
1aaaaa

#17000
0aaaaa

#18000
1aaaaa

#19000
0aaaaa

#20000
1aaaaa

#21000
0aaaaa

#22000
1aaaaa

#23000
0aaaaa

#24000
1aaaaa

#25000
0aaaaa

#26000
1aaaaa

#27000
0aaaaa

#28000
1aaaaa

#29000
0aaaaa

#30000
1aaaaa

#31000
0aaaaa
0aaaab

#32000
1aaaaa

#33000
0aaaaa

#34000
1aaaaa

#35000
0aaaaa

#36000
1aaaaa

#37000
0aaaaa

#38000
1aaaaa

#39000
0aaaaa

#40000
1aaaaa

#41000
0aaaaa
1aaaac

#42000
1aaaaa
b1 aaaad

#43000
0aaaaa

#44000
1aaaaa
b10 aaaad

#45000
0aaaaa

#46000
1aaaaa
b11 aaaad

#47000
0aaaaa

#48000
1aaaaa
b100 aaaad

#49000
0aaaaa

#50000
1aaaaa
b101 aaaad

#51000
0aaaaa

#52000
1aaaaa
b110 aaaad

#53000
0aaaaa

#54000
1aaaaa
b111 aaaad

#55000
0aaaaa

#56000
1aaaaa
b1000 aaaad

#57000
0aaaaa

#58000
1aaaaa
b1001 aaaad

#59000
0aaaaa

#60000
1aaaaa
b1010 aaaad

#61000
0aaaaa

#62000
1aaaaa
b1011 aaaad

#63000
0aaaaa

#64000
1aaaaa
b1100 aaaad

#65000
0aaaaa

#66000
1aaaaa
b1101 aaaad

#67000
0aaaaa

#68000
1aaaaa
b1110 aaaad

#69000
0aaaaa

#70000
1aaaaa
b1111 aaaad

#71000
0aaaaa

#72000
1aaaaa
b0 aaaad

#73000
0aaaaa

#74000
1aaaaa
b1 aaaad

#75000
0aaaaa

#76000
1aaaaa
b10 aaaad

#77000
0aaaaa

#78000
1aaaaa
b11 aaaad

#79000
0aaaaa

#80000
1aaaaa
b100 aaaad

