lab07/register/wave.vcd
$date
     Mar 11, 2016       14:40:01
$end

$version
 SystemC 2.3.1-Accellera --- Jan 20 2016 10:07:01
$end

$timescale
     1 ps
$end

$scope module SystemC $end
$var wire    1  aaaaa  clk       $end
$var wire    4  aaaab  din [3:0]  $end
$var wire    4  aaaac  dout [3:0]  $end
$var wire    1  aaaad  enable       $end
$var wire    1  aaaae  clr       $end
$var wire    1  aaaaf  rw       $end
$upscope $end
$enddefinitions  $end

$comment
All initial values are dumped below at time 0 sec = 0 timescale units.
$end

$dumpvars
1aaaaa
b0 aaaab
b0 aaaac
0aaaad
0aaaae
0aaaaf
$end

#5000
0aaaaa

#10000
1aaaaa

#15000
0aaaaa

#20000
1aaaaa

#25000
0aaaaa

#30000
1aaaaa

#35000
0aaaaa

#40000
1aaaaa

#45000
0aaaaa

#50000
1aaaaa

#55000
0aaaaa

#60000
1aaaaa

#65000
0aaaaa

#70000
1aaaaa

#75000
0aaaaa

#80000
1aaaaa

#85000
0aaaaa

#90000
1aaaaa

#95000
0aaaaa

#100000
1aaaaa
1aaaae

#105000
0aaaaa

#110000
1aaaaa

#115000
0aaaaa

#120000
1aaaaa

#125000
0aaaaa

#130000
1aaaaa

#135000
0aaaaa

#140000
1aaaaa

#145000
0aaaaa

#150000
1aaaaa

#155000
0aaaaa

#160000
1aaaaa

#165000
0aaaaa

#170000
1aaaaa

#175000
0aaaaa

#180000
1aaaaa

#185000
0aaaaa

#190000
1aaaaa

#195000
0aaaaa

#200000
1aaaaa
b11 aaaab
1aaaad
1aaaaf

#205000
0aaaaa

#210000
1aaaaa

#215000
0aaaaa

#220000
1aaaaa

#225000
0aaaaa

#230000
1aaaaa

#235000
0aaaaa

#240000
1aaaaa

#245000
0aaaaa

#250000
1aaaaa

#255000
0aaaaa

#260000
1aaaaa

#265000
0aaaaa

#270000
1aaaaa

#275000
0aaaaa

#280000
1aaaaa

#285000
0aaaaa

#290000
1aaaaa

#295000
0aaaaa

#300000
1aaaaa
0aaaaf

#305000
0aaaaa

#310000
1aaaaa
b11 aaaac

#315000
0aaaaa

#320000
1aaaaa

#325000
0aaaaa

#330000
1aaaaa

#335000
0aaaaa

#340000
1aaaaa

#345000
0aaaaa

#350000
1aaaaa

#355000
0aaaaa

#360000
1aaaaa

#365000
0aaaaa

#370000
1aaaaa

#375000
0aaaaa

#380000
1aaaaa

#385000
0aaaaa

#390000
1aaaaa

#395000
0aaaaa

#400000
1aaaaa
b1 aaaab
0aaaad
1aaaaf

#405000
0aaaaa

#410000
1aaaaa

#415000
0aaaaa

#420000
1aaaaa

#425000
0aaaaa

#430000
1aaaaa

#435000
0aaaaa

#440000
1aaaaa

#445000
0aaaaa

#450000
1aaaaa

#455000
0aaaaa

#460000
1aaaaa

#465000
0aaaaa

#470000
1aaaaa

#475000
0aaaaa

#480000
1aaaaa

#485000
0aaaaa

#490000
1aaaaa

#495000
0aaaaa

#500000
1aaaaa
1aaaad
0aaaaf

#505000
0aaaaa

#510000
1aaaaa

#515000
0aaaaa

#520000
1aaaaa

#525000
0aaaaa

#530000
1aaaaa

#535000
0aaaaa

#540000
1aaaaa

#545000
0aaaaa

#550000
1aaaaa

#555000
0aaaaa

#560000
1aaaaa

#565000
0aaaaa

#570000
1aaaaa

#575000
0aaaaa

#580000
1aaaaa

#585000
0aaaaa

#590000
1aaaaa

#595000
0aaaaa

#600000
1aaaaa
b1111 aaaab
1aaaaf

#605000
0aaaaa

#610000
1aaaaa

#615000
0aaaaa

#620000
1aaaaa

#625000
0aaaaa

#630000
1aaaaa

#635000
0aaaaa

#640000
1aaaaa

#645000
0aaaaa

#650000
1aaaaa

#655000
0aaaaa

#660000
1aaaaa

#665000
0aaaaa

#670000
1aaaaa

#675000
0aaaaa

#680000
1aaaaa

#685000
0aaaaa

#690000
1aaaaa

#695000
0aaaaa

#700000
1aaaaa
0aaaaf

#705000
0aaaaa

#710000
1aaaaa
b1111 aaaac

