lab05/multiplier/trace.vcd
$date
     Feb 24, 2016       17:00:03
$end

$version
 SystemC 2.3.1-Accellera --- Jan 20 2016 10:07:01
$end

$timescale
     1 ps
$end

$scope module SystemC $end
$var wire   16  aaaaa  A [15:0]  $end
$var wire   16  aaaab  B [15:0]  $end
$var wire   32  aaaac  C [31:0]  $end
$var wire    1  aaaad  ready       $end
$var wire    1  aaaae  clk       $end
$upscope $end
$enddefinitions  $end

$comment
All initial values are dumped below at time 0 sec = 0 timescale units.
$end

$dumpvars
b0 aaaaa
b0 aaaab
b0 aaaac
1aaaad
1aaaae
$end

#5000
0aaaae

#10000
b101 aaaaa
b101 aaaab
0aaaad
1aaaae

#15000
0aaaae

#20000
b11001 aaaac
1aaaad
1aaaae

#25000
0aaaae

#30000
b1010 aaaaa
b1010 aaaab
0aaaad
1aaaae

#35000
0aaaae

#40000
b1100100 aaaac
1aaaad
1aaaae

#45000
0aaaae

#50000
b100 aaaaa
b1000 aaaab
0aaaad
1aaaae

#55000
0aaaae

#60000
b100000 aaaac
1aaaad
1aaaae

#65000
0aaaae

#70000
b1100100 aaaaa
b1100100 aaaab
0aaaad
1aaaae

#75000
0aaaae

#80000
b10011100010000 aaaac
1aaaad
1aaaae

#85000
0aaaae

#90000
b11111010000 aaaaa
b10100 aaaab
0aaaad
1aaaae

#95000
0aaaae

#100000
b1001110001000000 aaaac
1aaaad
1aaaae

#105000
0aaaae

#110000
0aaaad
1aaaae

